…
And here we go:

``` r
tidy_nets <- 
        map2_df(nets, names(nets), function(x,y){
        meta <-  strsplit(y, "\\.")[[1]]
        tibble(location = meta[[1]],  year = meta[[2]], network = list(as.data.frame(x)))
})


tidy_nets
```

    ## # A tibble: 36 x 3
    ##    location year  network               
    ##    <chr>    <chr> <list>                
    ##  1 Barger   2006  <data.frame [8 × 13]> 
    ##  2 Barger   2007  <data.frame [7 × 23]> 
    ##  3 Barger   2008  <data.frame [8 × 23]> 
    ##  4 Barger   2009  <data.frame [9 × 14]> 
    ##  5 Barger   2011  <data.frame [7 × 9]>  
    ##  6 Barger   2012  <data.frame [11 × 21]>
    ##  7 Barger   2013  <data.frame [19 × 36]>
    ##  8 Barger   2014  <data.frame [9 × 25]> 
    ##  9 Butler   2007  <data.frame [8 × 15]> 
    ## 10 Butler   2008  <data.frame [7 × 15]> 
    ## # ... with 26 more rows
…
